<svg xmlns="http://www.w3.org/2000/svg" width="338" height="238" viewBox="0 0 338 238">
  <g id="Iliustrations_searchbuy" data-name="Iliustrations/searchbuy" transform="translate(23.878 -11.972)">
    <g id="shadow" transform="translate(-34.361 204.083)">
      <path id="Path_2729" data-name="Path 2729" d="M441.27,859h-274.8c-8.695,0-15.8,3.468-15.8,7.737h0c0,2.935,3.429,5.523,8.383,6.827H134.861c-8.691,0-15.8,3.484-15.8,7.737h0c0,4.269,7.11,7.737,15.8,7.737h8.432c-2.355,1.353-3.784,3.1-3.784,5.008v3.106c0,4.269,7.114,7.737,15.8,7.737H426.025c8.691,0,15.8-3.468,15.8-7.737v-3.095c0-4.269-7.114-7.737-15.8-7.737l-18.407.173a9.942,9.942,0,0,0,5.19-1.638c2.667-1.908,2.8-4.8,1.49-7.219-.85-1.561-2.21-2.8-5.578-3.263l32.536.107c8.695,0,15.8-3.484,15.8-7.737h0C457.075,862.482,449.965,859,441.27,859Z" transform="translate(-108.577 -859)" fill="#bec5ff"/>
    </g>
    <g id="object" transform="translate(77.122 11.972)">
      <path id="Path_2730" data-name="Path 2730" d="M561.831,418.236l.473,3.544-1.5,2.311-2.436-.359-.317-4.078L561.358,418Z" transform="translate(-491.699 -329.581)" fill="#eacdb0"/>
      <path id="Path_2731" data-name="Path 2731" d="M463.06,407l17.247,22.685,3.308-14.887,6.144,1.181-3.544,22.448-5.957,4.14-15.78-10.52Z" transform="translate(-419.155 -321.137)" fill="#ffaf20"/>
      <path id="Path_2732" data-name="Path 2732" d="M711.248,422l5.435,4.017,21.5,29.774-.945,7.089h-9.688l-21.5-28.828Z" transform="translate(-604.727 -332.565)" fill="#d34e4e"/>
      <path id="Path_2733" data-name="Path 2733" d="M329.144,936.9l-.584,2.68,4.629,3.816,3.19-2.113-2.023-3.247-4.629-3.816Z" transform="translate(-316.437 -723.335)" fill="#3b455a"/>
      <path id="Path_2734" data-name="Path 2734" d="M346.946,596.84l-5.168,11.914-.487,33.514-10.622,36.05,4.939,2.19,21.676-41.858,2.467-13.259.981-27.923Z" transform="translate(-318.048 -465.677)" fill="#3b455a"/>
      <path id="Path_2735" data-name="Path 2735" d="M435.962,597.922l.406,35.123-6.619,45.289h-5.09l-3.214-41.787L414.48,594.76Z" transform="translate(-382.054 -464.088)" fill="#3b455a"/>
      <path id="Path_2736" data-name="Path 2736" d="M457.68,945.87v2.753l5.506,2.75,2.75-2.75-2.75-2.753Z" transform="translate(-415.046 -732.232)" fill="#3b455a"/>
      <path id="Path_2737" data-name="Path 2737" d="M374.144,405.251l-13.521-.5s-8.086,7.089-12.266,25.534c-4.253,18.779.787,45.809.787,45.809s36.269-4.835,42.217-5.581l-9.074-37.073Z" transform="translate(-330.252 -319.329)" fill="#ffaf20"/>
      <path id="Path_2738" data-name="Path 2738" d="M418,357.97l-4.726-.473a23.868,23.868,0,0,1,.25-3.781c-1.316-.461-2.836-1.151-3.072-2.526a3.88,3.88,0,0,1,.076-1.309q.461-2.687.919-5.371a4.811,4.811,0,0,1,.555-1.786,4.028,4.028,0,0,1,2.821-1.529,9.8,9.8,0,0,1,7.942,1.923,4.294,4.294,0,0,1,1.342,1.765,5.837,5.837,0,0,1-.189,3.4l-.808,3.091c-.31,1.181-.756,2.533-1.89,2.98a10.08,10.08,0,0,0-1.871.52C418.36,355.5,418.5,356.94,418,357.97Z" transform="translate(-378.959 -270.857)" fill="#eacdb0"/>
      <path id="Path_2739" data-name="Path 2739" d="M414.62,311.788a15.178,15.178,0,0,0-.388-3.587c-.421-1.923-2.689-2.788-4.653-2.923-4.242-.3-8.334-2.219-12.477-.735-2.363.848-5.546,1.054-7.689,2.25a6.323,6.323,0,0,0-2.162,2.138,9.527,9.527,0,0,0-.012,10.078,13.435,13.435,0,0,0,1.484,1.867c1.12,1.21,2.458,2.706,4,3.152.035-1.375-1.224-5.709-.17-6.838,1.675-1.789,5.466-1.182,7.545-.733,2.268.473,4.291,2.079,6.538,2.42a8.526,8.526,0,0,0,5.057-1.389A6.427,6.427,0,0,0,414.62,311.788Z" transform="translate(-360.154 -242.597)" fill="#865b48"/>
      <path id="Path_2740" data-name="Path 2740" d="M427.134,411.695l14.211,56.849L442.51,476l-17.706,2.33s.709-27.224.473-30.853-2.866-11.482-3.27-19.936c-.236-4.894-1.786-13.682-.7-16.541Z" transform="translate(-386.976 -324.107)" fill="#fff"/>
      <path id="Path_2742" data-name="Path 2742" d="M733.75,938.029l.22,2.179-3.953,2.717-2.306-1.909,1.867-2.448,3.953-2.717Z" transform="translate(-621.268 -724.58)" fill="#514943"/>
      <path id="Path_2743" data-name="Path 2743" d="M700.544,660.785l.669,6.619-5.926,22.737,5.5,36.536-4.05,1.4L686.057,692.4l-1.7-10.376.064-21.969Z" transform="translate(-588.162 -513.958)" fill="#efd7bf"/>
      <path id="Path_2744" data-name="Path 2744" d="M620.99,676.357l8.521,61.222h3.873l.7-39.244,7.051-27.545Z" transform="translate(-539.766 -522.153)" fill="#efd7bf"/>
      <path id="Path_2745" data-name="Path 2745" d="M653.043,951.39v2.2l-4.19,2.2-2.094-2.2,2.094-2.2Z" transform="translate(-559.447 -736.447)" fill="#514943"/>
      <path id="Path_2746" data-name="Path 2746" d="M599.46,421.2c.078-.135.161-.267.236-.4,3.041-4.61,9.925-1.711,14.435-1.711,1.234,13.015,4.646,25.416,6.853,38.193q3.509,20.355,7.9,40.544c.165.761-11.621.378-12.734.4-11.342.191-26.182.151-37.122-3.282,6.983-18.776,9.532-38.989,15.031-58.243,1.212-4.253,2.526-8.438,4.076-12.54A18.973,18.973,0,0,1,599.46,421.2Z" transform="translate(-507.721 -329.546)" fill="#ff5a3a"/>
      <path id="Path_2750" data-name="Path 2750" d="M602.255,424.36l-3.741,2.4L581.05,447.9l.473,5.907h8.117l14.8-23.393Z" transform="translate(-509.264 -334.39)" fill="#ff5a3a"/>
      <path id="Path_2751" data-name="Path 2751" d="M663.868,448.892c-16.572-2.8-21.479-12.977-22.106-14.443,0,0,.021-.111-.035-.087-.024-.057-.087.04-.087.04-1.463.629-12.037,4.617-25.969-4.783,0,0-13.313,26.5-8.9,41.25,4.726,15.752,11.283,22.571,11.342,22.557.028.045,9.528-.267,23.764-8.521C655.189,477.182,663.868,448.892,663.868,448.892Z" transform="translate(-528.222 -338.314)" fill="#283fff"/>
      <path id="Path_2752" data-name="Path 2752" d="M667.774,462.828c-15.014-2.6-19.518-11.713-20.085-13.022,0,0,.019-.1-.033-.078-.021-.052-.078.033-.078.033-1.321.553-10.87,4.05-23.533-4.421,0,0-11.893,23.575-7.8,36.768,4.36,14.088,10.076,20.865,10.123,20.853.026.043,8.892-.832,21.739-8.117C660.085,488.03,667.774,462.828,667.774,462.828Z" transform="translate(-535.489 -350.319)" fill="#7e8bff"/>
      <path id="Path_2753" data-name="Path 2753" d="M670.292,448.05s.059-.09.083-.035c.054-.024.036.083.036.083.588,1.345,5.137,10.551,20.137,13.469.929-2.517,1.418-4.126,1.418-4.126-15.014-2.6-19.516-11.713-20.085-13.022,0,0,.016-.1-.036-.08-.021-.052-.078.035-.078.035-1.319.551-10.87,4.05-23.531-4.423,0,0-.758,1.5-1.827,3.963C659.29,452.152,668.936,448.617,670.292,448.05Z" transform="translate(-559.179 -346.296)" fill="#283fff"/>
      <path id="Path_2754" data-name="Path 2754" d="M675.756,495.247c-11.361-1.916-15.872-9.646-16.3-10.65,0,0,.014-.076-.026-.059-.017-.04-.059.026-.059.026-1,.43-9.525,2.932-19.076-3.514,0,0-7.855,18.405-4.83,28.516,3.232,10.8,7.736,15.475,7.772,15.463.019.033,6.534-.182,16.293-5.841C668.66,513.9,675.756,495.247,675.756,495.247Z" transform="translate(-550.288 -377.589)" fill="#bec5ff"/>
      <path id="Path_2755" data-name="Path 2755" d="M317.471,405l-6.38,3.544-21.03,31.191,1.89,8.034,11.579-1.418Z" transform="translate(-287.034 -319.597)" fill="#ffaf20"/>
      <path id="Path_2756" data-name="Path 2756" d="M374.967,472.568l-44.689,11.569-8.138-31.423L341.266,434.5l25.563,6.642Z" transform="translate(-311.534 -342.076)" fill="#7e8bff"/>
      <path id="Path_2757" data-name="Path 2757" d="M343.535,414.706l-12.287-3.181L311.4,406.384c-1.6-.414-3.195-.872-4.806-1.243a2.765,2.765,0,0,0-2.661.744c-.473.454-.931.924-1.4,1.387l-13.469,13.374c-3.634,3.618-7.337,7.181-10.926,10.86-.059.061-.121.118-.182.18a2.384,2.384,0,0,0,3.363,3.381l8.871-8.8L304.243,412.3l2.271-2.257,11.134,2.883,20.012,5.182,4.582,1.181a2.384,2.384,0,1,0,1.3-4.589Z" transform="translate(-277.255 -319.664)" fill="#283fff"/>
      <rect id="Rectangle_674" data-name="Rectangle 674" width="11.255" height="21.683" transform="matrix(0.968, -0.251, 0.251, 0.968, 19.435, 118.519)" fill="#fff"/>
      <rect id="Rectangle_675" data-name="Rectangle 675" width="6.122" height="5.222" transform="matrix(0.968, -0.251, 0.251, 0.968, 37.689, 113.74)" fill="#fff"/>
      <rect id="Rectangle_676" data-name="Rectangle 676" width="6.122" height="5.222" transform="matrix(0.968, -0.251, 0.251, 0.968, 45.449, 111.724)" fill="#fff"/>
      <rect id="Rectangle_677" data-name="Rectangle 677" width="6.122" height="5.222" transform="matrix(0.968, -0.251, 0.251, 0.968, 39.479, 120.682)" fill="#fff"/>
      <rect id="Rectangle_678" data-name="Rectangle 678" width="6.122" height="5.222" transform="matrix(0.968, -0.251, 0.251, 0.968, 47.239, 118.666)" fill="#fff"/>
      <path id="Path_2758" data-name="Path 2758" d="M290.06,544.363l7.8-2.363,25.993,13.942-2.009,5.435L291.95,552.4Z" transform="translate(-287.034 -424.136)" fill="#ffaf20"/>
      <path id="Path_2759" data-name="Path 2759" d="M426.9,605l4.605,0,3.672,4.426-4.145,1.482-5.579-1.987Z" transform="translate(-390.432 -472.223)" fill="#eacdb0"/>
      <path id="Path_2760" data-name="Path 2760" d="M748.878,555.836,740.135,553l-20.085,2.127.236,6.144,27.647,3.072Z" transform="translate(-615.419 -432.546)" fill="#ff5a3a"/>
      <path id="Path_2761" data-name="Path 2761" d="M689.495,565.059,684.776,565l-4.726,2.836,1.89,2.6,4.726-.473,3-1.361Z" transform="translate(-584.87 -441.712)" fill="#eacdb0"/>
      <path id="Path_2762" data-name="Path 2762" d="M533.331,28.307V26.116l-1.068-2.07a.765.765,0,0,0-1.068.022l-.891,2.048v2.2c-.841,0-2.209.623-2.209,1.393a1.464,1.464,0,0,0,1.522,1.4h.688v74.39c0,4.2-2.342,7.691-5.7,7.617-2.6-.058-4.877-2.157-5.26-5.585a1.57,1.57,0,0,0-1.6-1.344h-.059a1.614,1.614,0,0,0-1.191.481,1.442,1.442,0,0,0-.406,1.166c.664,4.875,4.745,8.363,8.618,8.363a7.789,7.789,0,0,0,6.957-3.728c1.789-2.966,1.675-6.23,1.675-9.487V31.1h.473a1.464,1.464,0,0,0,1.519-1.4C535.323,28.93,534.17,28.307,533.331,28.307Z" transform="translate(-459.641 -23.84)" fill="#3b455a"/>
      <g id="Group_200" data-name="Group 200" transform="translate(70.631 35.21)" opacity="0.26">
        <path id="Path_2763" data-name="Path 2763" d="M579.22,202.691l-3.06-3.181V194.26h3.06Z" transform="translate(-576.16 -194.26)" fill="#3b455a"/>
      </g>
      <path id="Path_2764" data-name="Path 2764" d="M680.42,261l.357.175.515-.175Z" transform="translate(-585.153 -209.829)" fill="none"/>
      <path id="Path_2765" data-name="Path 2765" d="M389.893,104.038l.546-3.36a78.945,78.945,0,0,1,13.086-32.373l8.507-12.235a55.142,55.142,0,0,0-52.352,48.063,53.5,53.5,0,0,1,15.2-2.115,54.736,54.736,0,0,1,15.014,2.02Z" transform="translate(-340.203 -48.516)" fill="#283fff"/>
      <path id="Path_2766" data-name="Path 2766" d="M605.479,97.084l1.456,7.212h.546a52.629,52.629,0,0,1,16.38-2.476,53.793,53.793,0,0,1,16.453,2.46A55.183,55.183,0,0,0,585.535,55.81c-.591,0-1.182.014-1.765.033l6.789,9.936C598.881,76,602.7,86.375,605.479,97.084Z" transform="translate(-511.341 -48.318)" fill="#283fff"/>
      <path id="Path_2767" data-name="Path 2767" d="M488.086,100.625l-.546,3.36.147.043c5.728-2.547,13.58-4.017,22.252-4.017,9.13,0,17.37,1.619,23.178,4.421h.326l-1.456-7.212c-2.776-10.7-6.6-21.071-14.92-31.3L510.279,56c-.2,0-.406.014-.61.021l-8.507,12.235a78.945,78.945,0,0,0-13.077,32.368Z" transform="translate(-437.85 -48.463)" fill="#bec5ff"/>
      <path id="Path_2768" data-name="Path 2768" d="M487.479,259.07l-.019.116.165-.073Z" transform="translate(-437.789 -208.357)" fill="#fff"/>
      <path id="Path_2769" data-name="Path 2769" d="M581.05,522.06l7.642-.6,14.1,15.723-3.072,3.072-18.195-12.287Z" transform="translate(-509.264 -408.471)" fill="#ff5a3a"/>
      <path id="Path_2770" data-name="Path 2770" d="M665.191,590.75l3.013,2.422.236,4.49h-2.6l-2.231-5.328Z" transform="translate(-572.315 -461.351)" fill="#eacdb0"/>
      <path id="Path_2771" data-name="Path 2771" d="M547.2,417.853l-1.5-2.663.083-4.19,1.418.473.473,2.127,2.6,2.363-.766,2.424Z" transform="translate(-482.267 -324.24)" fill="#eacdb0"/>
      <path id="Path_2772" data-name="Path 2772" d="M552.25,409.875l.34-2.746,2.8-2.079,1.914,1.484-.447,2.285Z" transform="translate(-487.269 -319.705)" fill="#eacdb0"/>
    </g>
    <g id="Group_208" data-name="Group 208" transform="translate(138.968 26.014)">
      <path id="Path_2785" data-name="Path 2785" d="M209.484,248.723a1.311,1.311,0,0,0,.238.377,3.06,3.06,0,0,0,1.649.917,7.686,7.686,0,0,0,2.488,0c1.12-.131,1.127-.778,1.358-1.777a30.114,30.114,0,0,0,.512-3.28c1.6-.132,3.5-.483,4.2-2.132a5.622,5.622,0,0,0,.331-1.656l.711-7a6.87,6.87,0,0,0-.043-2.413,4.76,4.76,0,0,0-2.63-2.843,10.151,10.151,0,0,0-9.383-.277,5.193,5.193,0,0,0-2.047,1.752,8.355,8.355,0,0,0-.874,4.3c-.028,1.375-.06,2.747-.092,4.123-.036,1.582.032,3.412,1.148,4.35.6.5,1.422.654,1.9,1.276a4.092,4.092,0,0,1,.458,2.794A3.383,3.383,0,0,0,209.484,248.723Z" transform="translate(-181.075 -173.479)" fill="#efd7bf"/>
      <path id="Path_2786" data-name="Path 2786" d="M234.567,223.834a2.556,2.556,0,0,0-.156.416c-.2.743.032,1.55-.163,2.3-.306,1.184-1.6,1.973-1.717,3.2-.1.992.643,1.88.771,2.868.139,1.084-.483,2.161-.295,3.227a7.144,7.144,0,0,0,1.454,2.9c-.188-.22-1.741-.025-2.164-.245a1.641,1.641,0,0,1-.967-1.2,12.971,12.971,0,0,0-.466-1.909c-.409-.782-1.169-1.322-1.486-2.161-.427-1.148.107-2.431-.028-3.65-.206-1.845-1.93-3.469-1.478-5.271.267-1.066,1.219-1.777,1.717-2.754a13.774,13.774,0,0,0,.711-2.367,2.79,2.79,0,0,1,1.468-1.887,13.131,13.131,0,0,1,1.351-.259,17.421,17.421,0,0,0,2.108-1.091c1.048-.441,3.017.5,3.71,1.372s.426,1.646-.149,2.488C237.826,221.225,235.331,222.259,234.567,223.834Z" transform="translate(-206.642 -165.884)" fill="#f8edc7"/>
      <path id="Path_2787" data-name="Path 2787" d="M200.276,214.123a22.275,22.275,0,0,1,2.132,1.219c1.223.992,1.564,2.694,1.717,4.265.139,1.393.839,2.591.793,4.059a3.554,3.554,0,0,1-1.13,2.641c-.938.789-2.488,1.02-2.843,2.193-.391,1.276,1.009,2.744.306,3.881-.387.626-1.223.771-1.813,1.216a5.453,5.453,0,0,0-1.319,2.051,2.489,2.489,0,0,1-1.777,1.56,6.851,6.851,0,0,1,.217-3.4c.263-.686,1.088-1.976.334-2.644-.483-.565-1.542-.682-1.624-1.422a1.727,1.727,0,0,1,.355-.967,4.29,4.29,0,0,0,.036-3.91,5.566,5.566,0,0,0-2.961-2.648c-1.475-.586-1.269-.949-1.777-2.282-.473-1.23-1.2-1.471-2.367-1.848a2.389,2.389,0,0,1-1.834-1.493,2.809,2.809,0,0,1-.38-2.285,4.72,4.72,0,0,1,1.329-1.578c1.088-.96,2.314-1.976,3.764-1.976.8,0,1.585.323,2.388.309a15.11,15.11,0,0,0,1.6-.22,4.265,4.265,0,0,1,2.669.6c.785.494.807,1.066,1.276,1.816A2.769,2.769,0,0,0,200.276,214.123Z" transform="translate(-159.391 -163.606)" fill="#f8edc7"/>
    </g>
  </g>
</svg>
